# This is a comment line.
# Remove '#' for activating the following commands.

# Add_new_grandprix(US, 12, 23)
# Modify_race_car(racer1, 560, 50, 200, 2500)
# Delete_team_racer(team1, 1)
# Add_new_F1racer(team1, 20, jared, UK)
# Exchange_racers(3, 10)
# Retrieve_race_engineer_info(racer1)
# Retrieve_race_car_info(racer5)
Qualifying_tours_results_stage1(01:29:30 - 01:21:29 - 01:25:20 - 01:25:21 - 01:25:22 - 01:25:23 - 01:25:24 - 01:25:25 - 01:25:26 - 01:30:27)
Qualifying_tours_results_stage2(01:20:29 - 01:23:04 - 01:33:05 - 01:33:02 - 01:23:07 - 01:23:08 - 01:19:55 - 01:22:43)
Qualifying_tours_results_stage3(01:24:36 - 01:20:20 - 01:19:50 - 01:19:45 - 01:28:17 - 01:21:54)
Race(01:32:34:08 - 01:30:20:00 - 01:38:50:02 - 01:40:45:23 - 01:28:17:35 - 01:21:54:07)
Reset_Season()
Retrieve_race_results(08/02/2008)
