01:30:27 racer10 01:29:30 racer1
01:33:05 racer4 01:33:02 racer5
Qualifying tours for this grand prix have finished.
The results:
Grid1: racer7
Grid2: racer6
Grid3: racer3
12 racer9 10
11 racer8 8
4 racer3 6
team4 11 0 0 team5 10 0 0 team2 6 0 0 team1 5 0 0 team3 4 0 0 
racer7 team4 3 0 1 3 1 racer8 team4 8 1 0 8 1 racer9 team5 10 1 0 10 1 racer10 team5 0 0 0 0 1 racer3 team2 6 1 0 6 1 racer4 team2 0 0 0 0 1 racer1 team1 0 0 0 0 1 racer2 team1 5 0 0 5 1 racer5 team3 0 0 0 0 1 racer6 team3 4 0 0 4 1 
racer9 team5 10 01:21:54.070 racer8 team4 8 01:28:17.350 racer3 team2 6 01:30:20 racer2 team1 5 01:32:34.080 racer6 team3 4 01:38:50.020 racer7 team4 3 01:40:45.230 
