car1 racer1 1 1 1 tyre 1
car2 racer2 1 1 1 tyre 1
car3 racer3 1 1 1 tyre 1
car4 racer4 1 1 1 tyre 1
car5 racer5 1 1 1 tyre 1
car6 racer6 1 1 1 tyre 1
car7 racer7 1 1 1 tyre 1
car8 racer8 1 1 1 tyre 1
car9 racer9 1 1 1 tyre 1
car10 racer10 1 1 1 tyre 1